{
  "current_page": 1,
  "total_pages": 303,
  "total_items": 604,
  "items_per_page": 2,
  "items": [
    {
      "category": {
        "url": "/v1/categories/61808",
        "category_id": 61808,
        "name": "MUSIC SUBMISSIONS 2017 ",
        "description": null,
        "blind_level": null,
        "blind_value": 0
      },
      "submitter": {
        "user_id": "f10efcbf-3723-4a3a-a323-7baffe139441",
        "first_name": "Dino",
        "last_name": "Carrillo",
        "email": "admin@oflimbs.com",
        "address1": null,
        "address2": null,
        "city": null,
        "state": null,
        "postal_code": null,
        "country": null,
        "phone": null
      },
      "payment": null,
      "votes": {
        "count": 1,
        "score": 0,
        "average": 0.0
      },
      "assignments": {
        "type": "assignment",
        "url": "/v1/submissions/6124710/assignments",
        "count": 25,
        "items": [
          {
            "user_id": "5bb6cb8a-14d8-4247-8206-0d2266899de6",
            "staff_name": "Sibylle  Gorla ",
            "permission_level": "Level 1",
            "permission_value": 5
          },
          {
            "user_id": "98e1fddf-4e00-45f7-8751-18135fb5a456",
            "staff_name": "Melanie Radford",
            "permission_level": "Level 1",
            "permission_value": 5
          },
          {
            "user_id": "56e39933-8b03-4a30-be78-1bf59ce8b05a",
            "staff_name": "Jessie Wright",
            "permission_level": "Level 1",
            "permission_value": 5
          },
          {
            "user_id": "f9cca152-c4de-4244-88e3-26715abbc20f",
            "staff_name": "Jordan Hawkes",
            "permission_level": "Level 4",
            "permission_value": 30
          },
          {
            "user_id": "f75f9c7a-7084-46a5-a36d-2bfd12c860a4",
            "staff_name": "Lisa Simpson",
            "permission_level": "Level 5",
            "permission_value": 40
          },
          {
            "user_id": "222daf2f-373a-4be0-8ea7-3d38987c1e9d",
            "staff_name": "Drew Lorona",
            "permission_level": "Level 5",
            "permission_value": 40
          },
          {
            "user_id": "1c02313a-f45d-47f3-95d5-41a141898f85",
            "staff_name": "Kira Erznoznik",
            "permission_level": "Level 1",
            "permission_value": 5
          },
          {
            "user_id": "04592e05-b318-4889-b2c6-48b716f5ebc4",
            "staff_name": "Stephanie Coyle",
            "permission_level": "Level 1",
            "permission_value": 5
          },
          {
            "user_id": "1267c9d8-d255-488f-b256-534eb71fe915",
            "staff_name": "Stacey Alexander",
            "permission_level": "Level 1",
            "permission_value": 5
          },
          {
            "user_id": "2eab69f2-dce8-431f-a8ef-5c0040de3b10",
            "staff_name": "Chad Dryden",
            "permission_level": "Level 2",
            "permission_value": 10
          },
          {
            "user_id": "1866e779-a345-400c-a9a2-62112d18f3a1",
            "staff_name": "J Rose",
            "permission_level": "Level 5",
            "permission_value": 40
          },
          {
            "user_id": "3c3efbb7-a04d-4581-8c1f-737fdaad86c6",
            "staff_name": "John Betts",
            "permission_level": "Level 2",
            "permission_value": 10
          },
          {
            "user_id": "893b999f-c6b2-4899-a31c-74d99455fc78",
            "staff_name": "Lori  Shandro",
            "permission_level": "Level 5",
            "permission_value": 40
          },
          {
            "user_id": "b6a5fcf6-f004-402f-96c7-89a507ae92a1",
            "staff_name": "Megan Stoll",
            "permission_level": "Level 5",
            "permission_value": 40
          },
          {
            "user_id": "136d0266-0165-4614-9fd0-94a858f10d17",
            "staff_name": "Matt Jones",
            "permission_level": "Level 2",
            "permission_value": 10
          },
          {
            "user_id": "5a32feb0-c5fa-46f1-9b59-9b20de48cec5",
            "staff_name": "Allie Morgan",
            "permission_level": "Level 4",
            "permission_value": 30
          },
          {
            "user_id": "4e5add85-bb24-48bb-8dc1-9f870e4d07d3",
            "staff_name": "mt dy",
            "permission_level": "Level 2",
            "permission_value": 10
          },
          {
            "user_id": "d30da0c0-1d5c-4a88-a722-a50354f1b085",
            "staff_name": "Alisha Graefe",
            "permission_level": "Level 1",
            "permission_value": 5
          },
          {
            "user_id": "9633221e-e320-4de6-bfe2-a7753a1b57c0",
            "staff_name": "Angel Abaya",
            "permission_level": "Level 1",
            "permission_value": 5
          },
          {
            "user_id": "f194dd17-244a-4755-af32-c2644b559bfe",
            "staff_name": "Elizabeth Corsentino",
            "permission_level": "Level 4",
            "permission_value": 30
          },
          {
            "user_id": "9721bcf1-56d1-4c2c-a1da-c50431863fd9",
            "staff_name": "Eric Gilbert",
            "permission_level": "Level 5",
            "permission_value": 40
          },
          {
            "user_id": "4652bb02-f389-4489-b602-d89d3f8ce1a3",
            "staff_name": "Haley Winstead",
            "permission_level": "Level 1",
            "permission_value": 5
          },
          {
            "user_id": "84d2af54-abc9-4d67-868b-e01f6becb06b",
            "staff_name": "Marisa Weppner",
            "permission_level": "Level 4",
            "permission_value": 30
          },
          {
            "user_id": "8bd6660d-659a-40b5-b556-e36f6ed93067",
            "staff_name": "Sara Peyton",
            "permission_level": "Level 5",
            "permission_value": 40
          },
          {
            "user_id": "632f010d-bee5-4797-810d-ef28722bb256",
            "staff_name": "Nathan Walker",
            "permission_level": "Level 1",
            "permission_value": 5
          }
        ]
      },
      "labels": {
        "type": "label",
        "url": "/v1/submissions/6124710/labels",
        "count": 4,
        "items": [
          {
            "label_text": "So Cal",
            "label_color1": "#339966",
            "label_color2": ""
          },
          {
            "label_text": "hip hop",
            "label_color1": "#800080",
            "label_color2": "#000"
          },
          {
            "label_text": "Spacebar possibility",
            "label_color1": "#339966",
            "label_color2": "#000"
          },
          {
            "label_text": "artist committee 2nd look",
            "label_color1": "#CEA6CE",
            "label_color2": ""
          }
        ]
      },
      "form": {
        "type": "form",
        "url": "/v1/submissions/6124710/form",
        "count": 23,
        "items": [
          {
            "form_field_id": 685159,
            "field_type": "Text Box",
            "label": "City, State",
            "data": "Los Angeles, California",
            "blind": false,
            "order": 2
          },
          {
            "form_field_id": 685177,
            "field_type": "Text Area",
            "label": "Description",
            "data": "Of Limbs, is a (Hip-Hop) Rap duo out of the Los Angeles area. The group has been said to have the familiar sounds of throwback artist such as, \"The Pharcyde, A Tribe Called Quest, and the Beastie Boys\", but all original and new for today's Rap enthusiast! If you're a fan of Hip-Hop music, you'll love 'Of Limbs' clever wordplay, and high charged rhymes. And hey, you might get some props from your older brother or sister for it! =D",
            "blind": false,
            "order": 3
          },
          {
            "form_field_id": 685181,
            "field_type": "File Upload",
            "label": "Image",
            "data": "CustomField_ID685181_type31",
            "blind": false,
            "order": 4
          },
          {
            "form_field_id": 685190,
            "field_type": "Checkbox List",
            "label": "Genre",
            "data": "Hip-hop,Rap",
            "blind": false,
            "order": 5
          },
          {
            "form_field_id": 685169,
            "field_type": "Embeddable URL",
            "label": "Music",
            "data": "https://oflimbs.bandcamp.com/releases",
            "blind": false,
            "order": 6
          },
          {
            "form_field_id": 685182,
            "field_type": "File Upload",
            "label": "Music Upload",
            "data": "CustomField_ID685182_type31",
            "blind": false,
            "order": 7
          },
          {
            "form_field_id": 685192,
            "field_type": "Radiobutton List",
            "label": "Do you agree to the Terms & Conditions?",
            "data": "Yes.",
            "blind": false,
            "order": 8
          },
          {
            "form_field_id": 685158,
            "field_type": "Embeddable URL",
            "label": "Video 1",
            "data": "https://youtu.be/Aaf1xUtGOto",
            "blind": false,
            "order": 9
          },
          {
            "form_field_id": 685166,
            "field_type": "Embeddable URL",
            "label": "Video 2",
            "data": "https://youtu.be/lkfdQmJJ_UQ",
            "blind": false,
            "order": 10
          },
          {
            "form_field_id": 685167,
            "field_type": "Embeddable URL",
            "label": "Video 3",
            "data": "",
            "blind": false,
            "order": 11
          },
          {
            "form_field_id": 685183,
            "field_type": "Embeddable URL",
            "label": "Website",
            "data": "www.oflimbs.com",
            "blind": false,
            "order": 12
          },
          {
            "form_field_id": 685184,
            "field_type": "Embeddable URL",
            "label": "Facebook",
            "data": "www.facebook.com/oflimbs",
            "blind": false,
            "order": 13
          },
          {
            "form_field_id": 685185,
            "field_type": "Embeddable URL",
            "label": "Twitter",
            "data": "https://twitter.com/of_limbs",
            "blind": false,
            "order": 14
          },
          {
            "form_field_id": 685168,
            "field_type": "Embeddable URL",
            "label": "Instagram",
            "data": "https://www.instagram.com/of_limbs/",
            "blind": false,
            "order": 15
          },
          {
            "form_field_id": 685187,
            "field_type": "Text Box",
            "label": "Number of Band Members",
            "data": "2",
            "blind": false,
            "order": 16
          },
          {
            "form_field_id": 685188,
            "field_type": "Text Area",
            "label": "Band Members Names",
            "data": "Dino Carrillo, and Jeff Davis",
            "blind": false,
            "order": 17
          },
          {
            "form_field_id": 685191,
            "field_type": "Cover Letter",
            "label": "Why do you want to play Treefort?",
            "data": "We have ran an independent radio campaign around the nation, and RadioBoise 89.9 has been playing our music quite a bit. There's been a positive some local response out in the Boise area, and we would love to share the stage with some of the local Boise talent, and it's people attending the festival. In the next couple of months, Of Limbs will be heading out to the Boise area for a one night event. The venue and date is currently under works. Back in the month of February, we independently released our debut record, and currently are working on a follow up EP. We are very grateful for the opportunity in submitting our group to (you guys) the Treefort music committee, for consideration in being one of several artist to perform at next year's Treefort festival. -Of Limbs",
            "blind": false,
            "order": 18
          },
          {
            "form_field_id": 685193,
            "field_type": "Radiobutton List",
            "label": "Okay for Radio Boise to LIVE broadcast your set?",
            "data": "Yes",
            "blind": false,
            "order": 19
          },
          {
            "form_field_id": 685165,
            "field_type": "Dropdown",
            "label": "How did you hear about Treefort Music Fest?",
            "data": "Word of Mouth",
            "blind": false,
            "order": 20
          },
          {
            "form_field_id": 685174,
            "field_type": "Text Box",
            "label": "Your Name",
            "data": "Dino Carrillo",
            "blind": false,
            "order": 23
          },
          {
            "form_field_id": 685175,
            "field_type": "Text Box",
            "label": "Your Email Address",
            "data": "admin@oflimbs.com",
            "blind": false,
            "order": 24
          },
          {
            "form_field_id": 685179,
            "field_type": "Text Box",
            "label": "Your Phone Number",
            "data": "1-818-402-8361",
            "blind": false,
            "order": 25
          },
          {
            "form_field_id": 685180,
            "field_type": "Dropdown",
            "label": "Relationship to Band",
            "data": "Member",
            "blind": false,
            "order": 26
          }
        ]
      },
      "files": [
        {
          "id": 8613906,
          "guid": "6862cfa8-7d94-407a-8f4f-cad924e44515",
          "form_field_id": 685181,
          "file_name": "13321849_1792500337703195_2438326779838673866_n.jpg",
          "file_extension": "jpg",
          "file_size": 98058,
          "mime_type": "image/jpeg",
          "url": "/v1/submissions/6124710/file/6862cfa8-7d94-407a-8f4f-cad924e44515",
          "transcoded_url": null
        },
        {
          "id": 8613907,
          "guid": "422ddc47-adba-4ad2-b46f-a915021e43dd",
          "form_field_id": 685182,
          "file_name": "02_No_One_Cares.mp3",
          "file_extension": "mp3",
          "file_size": 5884766,
          "mime_type": "audio/mp3",
          "url": "/v1/submissions/6124710/file/422ddc47-adba-4ad2-b46f-a915021e43dd",
          "transcoded_url": null
        }
      ],
      "url": "/v1/submissions/6124710",
      "link": "https://treefort.submittable.com/submissions/6124710",
      "submission_id": 6124710,
      "date_created": "2016-08-01T13:48:08.68",
      "title": "Of Limbs",
      "submission_content": null,
      "status": "In-Progress",
      "is_archived": false
    },
    {
      "category": {
        "url": "/v1/categories/61808",
        "category_id": 61808,
        "name": "MUSIC SUBMISSIONS 2017 ",
        "description": null,
        "blind_level": null,
        "blind_value": 0
      },
      "submitter": {
        "user_id": "0f3906dc-b835-4ad5-9887-d9e374e444ae",
        "first_name": "Lajune",
        "last_name": "grant",
        "email": "wesmock@yahoo.com",
        "address1": null,
        "address2": null,
        "city": null,
        "state": null,
        "postal_code": null,
        "country": null,
        "phone": null
      },
      "payment": null,
      "votes": {
        "count": 1,
        "score": -1,
        "average": -1.0
      },
      "assignments": {
        "type": "assignment",
        "url": "/v1/submissions/6130764/assignments",
        "count": 25,
        "items": [
          {
            "user_id": "5bb6cb8a-14d8-4247-8206-0d2266899de6",
            "staff_name": "Sibylle  Gorla ",
            "permission_level": "Level 1",
            "permission_value": 5
          },
          {
            "user_id": "98e1fddf-4e00-45f7-8751-18135fb5a456",
            "staff_name": "Melanie Radford",
            "permission_level": "Level 1",
            "permission_value": 5
          },
          {
            "user_id": "56e39933-8b03-4a30-be78-1bf59ce8b05a",
            "staff_name": "Jessie Wright",
            "permission_level": "Level 1",
            "permission_value": 5
          },
          {
            "user_id": "f9cca152-c4de-4244-88e3-26715abbc20f",
            "staff_name": "Jordan Hawkes",
            "permission_level": "Level 4",
            "permission_value": 30
          },
          {
            "user_id": "f75f9c7a-7084-46a5-a36d-2bfd12c860a4",
            "staff_name": "Lisa Simpson",
            "permission_level": "Level 5",
            "permission_value": 40
          },
          {
            "user_id": "222daf2f-373a-4be0-8ea7-3d38987c1e9d",
            "staff_name": "Drew Lorona",
            "permission_level": "Level 5",
            "permission_value": 40
          },
          {
            "user_id": "1c02313a-f45d-47f3-95d5-41a141898f85",
            "staff_name": "Kira Erznoznik",
            "permission_level": "Level 1",
            "permission_value": 5
          },
          {
            "user_id": "04592e05-b318-4889-b2c6-48b716f5ebc4",
            "staff_name": "Stephanie Coyle",
            "permission_level": "Level 1",
            "permission_value": 5
          },
          {
            "user_id": "1267c9d8-d255-488f-b256-534eb71fe915",
            "staff_name": "Stacey Alexander",
            "permission_level": "Level 1",
            "permission_value": 5
          },
          {
            "user_id": "2eab69f2-dce8-431f-a8ef-5c0040de3b10",
            "staff_name": "Chad Dryden",
            "permission_level": "Level 2",
            "permission_value": 10
          },
          {
            "user_id": "1866e779-a345-400c-a9a2-62112d18f3a1",
            "staff_name": "J Rose",
            "permission_level": "Level 5",
            "permission_value": 40
          },
          {
            "user_id": "3c3efbb7-a04d-4581-8c1f-737fdaad86c6",
            "staff_name": "John Betts",
            "permission_level": "Level 2",
            "permission_value": 10
          },
          {
            "user_id": "893b999f-c6b2-4899-a31c-74d99455fc78",
            "staff_name": "Lori  Shandro",
            "permission_level": "Level 5",
            "permission_value": 40
          },
          {
            "user_id": "b6a5fcf6-f004-402f-96c7-89a507ae92a1",
            "staff_name": "Megan Stoll",
            "permission_level": "Level 5",
            "permission_value": 40
          },
          {
            "user_id": "136d0266-0165-4614-9fd0-94a858f10d17",
            "staff_name": "Matt Jones",
            "permission_level": "Level 2",
            "permission_value": 10
          },
          {
            "user_id": "5a32feb0-c5fa-46f1-9b59-9b20de48cec5",
            "staff_name": "Allie Morgan",
            "permission_level": "Level 4",
            "permission_value": 30
          },
          {
            "user_id": "4e5add85-bb24-48bb-8dc1-9f870e4d07d3",
            "staff_name": "mt dy",
            "permission_level": "Level 2",
            "permission_value": 10
          },
          {
            "user_id": "d30da0c0-1d5c-4a88-a722-a50354f1b085",
            "staff_name": "Alisha Graefe",
            "permission_level": "Level 1",
            "permission_value": 5
          },
          {
            "user_id": "9633221e-e320-4de6-bfe2-a7753a1b57c0",
            "staff_name": "Angel Abaya",
            "permission_level": "Level 1",
            "permission_value": 5
          },
          {
            "user_id": "f194dd17-244a-4755-af32-c2644b559bfe",
            "staff_name": "Elizabeth Corsentino",
            "permission_level": "Level 4",
            "permission_value": 30
          },
          {
            "user_id": "9721bcf1-56d1-4c2c-a1da-c50431863fd9",
            "staff_name": "Eric Gilbert",
            "permission_level": "Level 5",
            "permission_value": 40
          },
          {
            "user_id": "4652bb02-f389-4489-b602-d89d3f8ce1a3",
            "staff_name": "Haley Winstead",
            "permission_level": "Level 1",
            "permission_value": 5
          },
          {
            "user_id": "84d2af54-abc9-4d67-868b-e01f6becb06b",
            "staff_name": "Marisa Weppner",
            "permission_level": "Level 4",
            "permission_value": 30
          },
          {
            "user_id": "8bd6660d-659a-40b5-b556-e36f6ed93067",
            "staff_name": "Sara Peyton",
            "permission_level": "Level 5",
            "permission_value": 40
          },
          {
            "user_id": "632f010d-bee5-4797-810d-ef28722bb256",
            "staff_name": "Nathan Walker",
            "permission_level": "Level 1",
            "permission_value": 5
          }
        ]
      },
      "labels": {
        "type": "label",
        "url": "/v1/submissions/6130764/labels",
        "count": 2,
        "items": [
          {
            "label_text": "New York",
            "label_color1": "#00cc00",
            "label_color2": "#000"
          },
          {
            "label_text": "R&B",
            "label_color1": "#ffffff",
            "label_color2": "#8FCDB6"
          }
        ]
      },
      "form": {
        "type": "form",
        "url": "/v1/submissions/6130764/form",
        "count": 23,
        "items": [
          {
            "form_field_id": 685159,
            "field_type": "Text Box",
            "label": "City, State",
            "data": "New york",
            "blind": false,
            "order": 2
          },
          {
            "form_field_id": 685177,
            "field_type": "Text Area",
            "label": "Description",
            "data": "Poughkeepsie native LaJune Grant has spent the past ten years pursuing her passion of music. With ambitions of becoming a rapper, singer and songwriter, LaJune learned early on that she would need to relocate to the center of the music industry in order to fully pursue her dreams. She moved to Brooklyn and finished her college degree and honed her skills as a rapper. Her first opportunity to test her talent came from BET’s “106 & Park.” After seven weeks of victorious rap battles, LaJune was the first female to be inducted into BET’s “106 & Park” Freestyle Friday Competition. Since that first big break, LaJune has opened up for R&B sensations Case and Joe at the Lehman Center Concert Hall and Grammy award-winning Crissette Michelle for a hurricane Sandy fundraising event “Give Back and Get Down.” She has also had the opportunity to perform all over New York City at various venues including the world famous Apollo Theater.\r\n \r\n LaJune’s musical performances can be seen on VH1’s Emmy award-winning morning show “Big Morning Buzz Live” and the video for her single “Fibrillate” was selected for MTVU’s freshman competition and played on the channel in December of 2013.\r\n \r\nLaJune’s vocal talent is also featured in a pilot for a new show that is being created for  VH1. Her EP “Body” is an eclectic mix of genres available now on iTunes, Amazon and other outlets online!",
            "blind": false,
            "order": 3
          },
          {
            "form_field_id": 685181,
            "field_type": "File Upload",
            "label": "Image",
            "data": "CustomField_ID685181_type31",
            "blind": false,
            "order": 4
          },
          {
            "form_field_id": 685190,
            "field_type": "Checkbox List",
            "label": "Genre",
            "data": "Hip-hop,Indie,Pop,R&B,Rap,Singer-Songwriter,Soul",
            "blind": false,
            "order": 5
          },
          {
            "form_field_id": 685169,
            "field_type": "Embeddable URL",
            "label": "Music",
            "data": "https://soundcloud.com/lajuneep",
            "blind": false,
            "order": 6
          },
          {
            "form_field_id": 685182,
            "field_type": "File Upload",
            "label": "Music Upload",
            "data": "CustomField_ID685182_type31",
            "blind": false,
            "order": 7
          },
          {
            "form_field_id": 685192,
            "field_type": "Radiobutton List",
            "label": "Do you agree to the Terms & Conditions?",
            "data": "Yes.",
            "blind": false,
            "order": 8
          },
          {
            "form_field_id": 685158,
            "field_type": "Embeddable URL",
            "label": "Video 1",
            "data": "https://www.youtube.com/watch?v=bBOM1EhVl8s",
            "blind": false,
            "order": 9
          },
          {
            "form_field_id": 685166,
            "field_type": "Embeddable URL",
            "label": "Video 2",
            "data": "https://www.youtube.com/watch?v=k_jMMJvjYuk",
            "blind": false,
            "order": 10
          },
          {
            "form_field_id": 685167,
            "field_type": "Embeddable URL",
            "label": "Video 3",
            "data": "https://www.youtube.com/watch?v=aQk1Sb-_yJk",
            "blind": false,
            "order": 11
          },
          {
            "form_field_id": 685183,
            "field_type": "Embeddable URL",
            "label": "Website",
            "data": "www.iamlajune.com",
            "blind": false,
            "order": 12
          },
          {
            "form_field_id": 685184,
            "field_type": "Embeddable URL",
            "label": "Facebook",
            "data": "http://www.facebook.com/#!/IamLaJune",
            "blind": false,
            "order": 13
          },
          {
            "form_field_id": 685185,
            "field_type": "Embeddable URL",
            "label": "Twitter",
            "data": "https://twitter.com/#!/iamlajune",
            "blind": false,
            "order": 14
          },
          {
            "form_field_id": 685168,
            "field_type": "Embeddable URL",
            "label": "Instagram",
            "data": "https://www.instagram.com/iamlajune/",
            "blind": false,
            "order": 15
          },
          {
            "form_field_id": 685187,
            "field_type": "Text Box",
            "label": "Number of Band Members",
            "data": "4",
            "blind": false,
            "order": 16
          },
          {
            "form_field_id": 685188,
            "field_type": "Text Area",
            "label": "Band Members Names",
            "data": "Lajune,willy welsey,john cave ,leah parks,\r\nJanderie Gutierrez",
            "blind": false,
            "order": 17
          },
          {
            "form_field_id": 685191,
            "field_type": "Cover Letter",
            "label": "Why do you want to play Treefort?",
            "data": "Because treefort is a stage for greats and legends and i would love to be apart of something epic Thank you guys.",
            "blind": false,
            "order": 18
          },
          {
            "form_field_id": 685193,
            "field_type": "Radiobutton List",
            "label": "Okay for Radio Boise to LIVE broadcast your set?",
            "data": "Yes",
            "blind": false,
            "order": 19
          },
          {
            "form_field_id": 685165,
            "field_type": "Dropdown",
            "label": "How did you hear about Treefort Music Fest?",
            "data": "Search Engine",
            "blind": false,
            "order": 20
          },
          {
            "form_field_id": 685174,
            "field_type": "Text Box",
            "label": "Your Name",
            "data": "WES Mock",
            "blind": false,
            "order": 23
          },
          {
            "form_field_id": 685175,
            "field_type": "Text Box",
            "label": "Your Email Address",
            "data": "wesmock@yahoo.com",
            "blind": false,
            "order": 24
          },
          {
            "form_field_id": 685179,
            "field_type": "Text Box",
            "label": "Your Phone Number",
            "data": "3476783835",
            "blind": false,
            "order": 25
          },
          {
            "form_field_id": 685180,
            "field_type": "Dropdown",
            "label": "Relationship to Band",
            "data": "Manager",
            "blind": false,
            "order": 26
          }
        ]
      },
      "files": [
        {
          "id": 8625189,
          "guid": "6e04f8c4-564f-4e05-a86b-cfb172fb66e9",
          "form_field_id": 685181,
          "file_name": "322771_2276380358922_513628050_o.jpg",
          "file_extension": "jpg",
          "file_size": 114602,
          "mime_type": "image/jpeg",
          "url": "/v1/submissions/6130764/file/6e04f8c4-564f-4e05-a86b-cfb172fb66e9",
          "transcoded_url": null
        },
        {
          "id": 8625190,
          "guid": "df5a8ac3-9d79-41e5-9bd2-90ee8bef71e6",
          "form_field_id": 685182,
          "file_name": "FIBRILLATE_M3.mp3",
          "file_extension": "mp3",
          "file_size": 3369306,
          "mime_type": "audio/mp3",
          "url": "/v1/submissions/6130764/file/df5a8ac3-9d79-41e5-9bd2-90ee8bef71e6",
          "transcoded_url": null
        }
      ],
      "url": "/v1/submissions/6130764",
      "link": "https://treefort.submittable.com/submissions/6130764",
      "submission_id": 6130764,
      "date_created": "2016-08-02T12:49:58.53",
      "title": "Lajune",
      "submission_content": null,
      "status": "In-Progress",
      "is_archived": false
    }
  ]
}
